…
final
```

    ## # A tibble: 160 x 4
    ##    treatment_arm subject_id  week result
    ##    <chr>         <chr>      <dbl>  <dbl>
    ##  1 Control       Control_01     1   0.2 
    ##  2 Control       Control_01     2  -1.31
    ##  3 Control       Control_01     3   0.66
    ##  4 Control       Control_01     4   1.96
    ##  5 Control       Control_01     5   0.23
    ##  6 Control       Control_01     6   1.09
    ##  7 Control       Control_01     7   0.05
    ##  8 Control       Control_01     8   1.94
    ##  9 Control       Control_02     1   1.13
    ## 10 Control       Control_02     2  -0.88
    ## # … with 150 more rows
…
for (i in 1:6) {
  output[[i]] = rerun(trials, simulation(n, i, sigma, alpha)) %>% 
  bind_rows
}

sim_results = 
  tibble(true_mu = c(1,2,3,4,5,6)) %>% 
  mutate(
    estimate_dfs = map(output, bind_rows)) %>% 
  unnest(estimate_dfs)
sim_results
```

    ## # A tibble: 3,000 x 4
    ##    true_mu  mu_hat p.value reject
    ##      <dbl>   <dbl>   <dbl> <lgl> 
    ##  1       1  2.35    0.102  FALSE 
    ##  2       1 -0.123   0.180  FALSE 
    ##  3       1 -0.770   0.0424 TRUE  
    ##  4       1 -0.174   0.180  FALSE 
    ##  5       1  0.0674  0.375  FALSE 
    ##  6       1 -0.457   0.131  FALSE 
    ##  7       1  2.31    0.0368 TRUE  
    ##  8       1  2.33    0.221  FALSE 
    ##  9       1  1.58    0.462  FALSE 
    ## 10       1  1.29    0.771  FALSE 
    ## # … with 2,990 more rows
…
